…
``` r
all_data <- map_df(.x = filer, read_sm_file) %>% 
  janitor::clean_names()
```

We can now view the data:

``` r
all_data
```

    ## # A tibble: 14,610 x 10
    ##    datum      konsumtion temperatur nederbordsmangd vindriktning vindhastighet
    ##    <date>          <dbl>      <dbl>           <dbl>        <dbl>         <dbl>
    ##  1 2013-01-01       101.        3.9             7.6         249.          3.53
    ##  2 2013-01-02       107.        6.4             0           266.          7.19
    ##  3 2013-01-03       102.        6               0.4         302.          5.83
    ##  4 2013-01-04       108.        2.4             1.2         145.          1.14
    ##  5 2013-01-05       105.        4.4             1.9         197.          1.83
    ##  6 2013-01-06       105.        2.1             5.5         151.          2.47
    ##  7 2013-01-07       112.        4.2             0           227.          2.01
    ##  8 2013-01-08       114.        4.5            14.4         204.          3.10
    ##  9 2013-01-09       109.       -0.1             0           123.          5.88
    ## 10 2013-01-10       121.       -1.7             0.2         168.          5.25
    ## # … with 14,600 more rows, and 4 more variables: lufttryck <dbl>,
    ## #   daggpunktstemperatur <dbl>, k2_regression <dbl>, station <chr>
…
